INDEX VERSION 1.130+C:\Users\Locke\Desktop\302\Ass2workplace\.metadata\.plugins\org.eclipse.jdt.core
887712136.index
2956378016.index
1959146791.index
592600685.index
3832441033.index
1497535120.index
1055679481.index
1860642593.index
2829508008.index
1314891969.index
829176400.index
4232500288.index
1564075441.index
1952518617.index
2934005217.index
3808123788.index
1329257546.index
2429332019.index
3693261185.index
2692035760.index
1105429178.index
421022922.index
1580166048.index
2589955883.index
3637040476.index
315890579.index
1230538165.index
724200551.index
3607245922.index
779636442.index
3947521672.index
2916426105.index
